30
680 320
660 340
640 360
620 380
600 400
580 420
560 435
540 435
520 435
500 435
480 435
460 435
440 435
420 435
400 435
380 435
360 434
340 430
320 422
300 411
280 396
260 376
240 356
220 336
200 316
180 300
160 300
140 300
120 300
100 300
